<?xml version="1.0" encoding="UTF-8"?>
<svg xmlns="http://www.w3.org/2000/svg"
    xmlns:latexdraw="http://latexdraw.sourceforge.net/namespaces/latexdraw"
    version="1.1" baseProfile="full">
    <defs>
        <pattern latexdraw:type="vlines"
            latexdraw:rotationAngle="-0.7853981633974483"
            latexdraw:size="14.0" patternUnits="userSpaceOnUse"
            id="pattern382" x="0" y="0" width="583" height="339">
            <g stroke="blue" stroke-width="2.0" stroke-dasharray="none">
                <path d="M 306.0 316.37258300203047 L 328.62741699796953 339.0 M 306.0 293.74516600406093 L 351.25483399593907 339.0 M 306.0 271.1177490060914 L 373.8822509939086 339.0 M 306.0 248.49033200812187 L 396.50966799187813 339.0 M 306.0 225.86291501015234 L 419.13708498984766 339.0 M 306.0 203.2354980121828 L 441.7645019878172 339.0 M 306.0 180.60808101421327 L 464.39191898578673 339.0 M 306.0 157.98066401624374 L 487.01933598375626 339.0 M 306.0 135.3532470182742 L 509.6467529817258 339.0 M 306.0 112.72583002030468 L 532.2741699796953 339.0 M 306.0 90.09841302233517 L 554.9015869776648 339.0 M 306.0 67.47099602436565 L 577.5290039756343 339.0 M 306.0 44.84357902639613 L 600.1564209736038 339.0 M 306.0 22.216162028426606 L 622.7838379715732 339.0 M 306.0 -0.4112549695429166 L 645.4112549695427 339.0 M 306.0 -23.03867196751244 L 668.0386719675122 339.0 M 306.0 -45.66608896548196 L 690.6660889654817 339.0 M 306.0 -68.29350596345148 L 713.2935059634511 339.0 M 306.0 -90.920922961421 L 735.9209229614206 339.0 M 306.0 -113.54833995939052 L 758.5483399593901 339.0 M 306.0 -136.17575695736005 L 781.1757569573596 339.0 M 306.0 -158.80317395532958 L 803.803173955329 339.0 M 306.0 -181.43059095329912 L 826.4305909532985 339.0 M 306.0 -204.05800795126865 L 849.058007951268 339.0 M 306.0 -226.68542494923818 L 871.6854249492375 339.0 M 306.0 -249.31284194720772 L 894.312841947207 339.0 M 306.0 -271.9402589451772 L 916.9402589451764 339.0 M 306.0 -294.56767594314675 L 939.5676759431459 339.0 "/>
            </g>
        </pattern>
        <pattern latexdraw:type="hlines"
            latexdraw:rotationAngle="-0.7853981633974483"
            latexdraw:size="14.0" patternUnits="userSpaceOnUse"
            id="pattern383" x="0" y="0" width="649" height="379">
            <g stroke="red" stroke-width="2.0" stroke-dasharray="none">
                <path d="M 360.0 250.62741699796953 L 382.62741699796953 228.0 M 360.0 273.25483399593907 L 405.25483399593907 228.0 M 360.0 295.8822509939086 L 427.8822509939086 228.0 M 360.0 318.50966799187813 L 450.50966799187813 228.0 M 360.0 341.13708498984766 L 473.13708498984766 228.0 M 360.0 363.7645019878172 L 495.7645019878172 228.0 M 360.0 386.39191898578673 L 518.3919189857867 228.0 M 360.0 409.01933598375626 L 541.0193359837562 228.0 M 360.0 431.6467529817258 L 563.6467529817256 228.0 M 360.0 454.27416997969533 L 586.2741699796951 228.0 M 360.0 476.90158697766486 L 608.9015869776646 228.0 M 360.0 499.5290039756344 L 631.529003975634 228.0 M 360.0 522.1564209736039 L 654.1564209736035 228.0 M 360.0 544.7838379715733 L 676.783837971573 228.0 M 360.0 567.4112549695428 L 699.4112549695425 228.0 M 360.0 590.0386719675123 L 722.038671967512 228.0 M 360.0 612.6660889654818 L 744.6660889654814 228.0 M 360.0 635.2935059634513 L 767.2935059634509 228.0 M 360.0 657.9209229614207 L 789.9209229614204 228.0 M 360.0 680.5483399593902 L 812.5483399593899 228.0 M 360.0 703.1757569573597 L 835.1757569573593 228.0 M 360.0 725.8031739553292 L 857.8031739553288 228.0 M 360.0 748.4305909532986 L 880.4305909532983 228.0 M 360.0 771.0580079512681 L 903.0580079512678 228.0 M 360.0 793.6854249492376 L 925.6854249492372 228.0 M 360.0 816.3128419472071 L 948.3128419472067 228.0 M 360.0 838.9402589451765 L 970.9402589451762 228.0 M 360.0 861.567675943146 L 993.5676759431457 228.0 M 360.0 884.1950929411155 L 1016.1950929411151 228.0 M 360.0 906.822509939085 L 1038.8225099390847 228.0 "/>
            </g>
        </pattern>
    </defs>
    <g>
        <g latexdraw:type="rectangle" id="id382">
            <rect x="307.0" y="165.0" width="275.0" height="173.0"
                latexdraw:borderPos="outer" stroke-width="2.0"
                stroke="black" fill="url(#pattern382)"/>
        </g>
        <g latexdraw:type="rectangle" id="id383">
            <rect x="361.0" y="229.0" width="287.0" height="149.0"
                latexdraw:borderPos="outer" stroke-width="2.0"
                stroke="#010101" fill="url(#pattern383)"/>
        </g>
        <g latexdraw:type="text" id="id384"
            font-family="Times New Roman" fill="black" font-size="18" latexdraw:x="319.0">
            <text x="319.0" y="151.0"><![CDATA[$A_1$]]></text>
        </g>
        <g latexdraw:type="text" id="id387"
            font-family="Times New Roman" fill="black" font-size="18" latexdraw:x="386.5">
            <text x="386.5" y="151.0"><![CDATA[$A_2$]]></text>
        </g>
        <g latexdraw:type="text" id="id390"
            font-family="Times New Roman" fill="black" font-size="18" latexdraw:x="454.0">
            <text x="454.0" y="151.0"><![CDATA[$A_3$]]></text>
        </g>
        <g latexdraw:type="text" id="id393"
            font-family="Times New Roman" fill="black" font-size="18" latexdraw:x="521.5">
            <text x="521.5" y="151.0"><![CDATA[$A_4$]]></text>
        </g>
        <g latexdraw:type="text" id="id396"
            font-family="Times New Roman" fill="black" font-size="18" latexdraw:x="589.0">
            <text x="589.0" y="151.0"><![CDATA[$A_5$]]></text>
        </g>
        <g latexdraw:type="text" id="id399"
            font-family="Times New Roman" fill="black" font-size="18" latexdraw:x="234.5">
            <text x="234.5" y="182.0"><![CDATA[$\mathbf{o}_1$]]></text>
        </g>
        <g latexdraw:type="text" id="id402"
            font-family="Times New Roman" fill="black" font-size="18" latexdraw:x="234.5">
            <text x="234.5" y="218.2"><![CDATA[$\mathbf{o}_2$]]></text>
        </g>
        <g latexdraw:type="text" id="id405"
            font-family="Times New Roman" fill="black" font-size="18" latexdraw:x="234.5">
            <text x="234.5" y="254.39999999999998"><![CDATA[$\mathbf{o}_3$]]></text>
        </g>
        <g latexdraw:type="text" id="id408"
            font-family="Times New Roman" fill="black" font-size="18" latexdraw:x="234.5">
            <text x="234.5" y="290.59999999999997"><![CDATA[$\mathbf{o}_4$]]></text>
        </g>
        <g latexdraw:type="text" id="id411"
            font-family="Times New Roman" fill="black" font-size="18" latexdraw:x="234.5">
            <text x="234.5" y="326.79999999999995"><![CDATA[$\mathbf{o}_5$]]></text>
        </g>
        <g latexdraw:type="text" id="id414"
            font-family="Times New Roman" fill="black" font-size="18" latexdraw:x="234.5">
            <text x="234.5" y="363.0"><![CDATA[$\mathbf{o}_6$]]></text>
        </g>
    </g>
    <metadata>
        <latexdraw:metadata>
            <latexdraw:displayBorders>false</latexdraw:displayBorders>
            <latexdraw:autoAdjust>true</latexdraw:autoAdjust>
            <latexdraw:ppc>50</latexdraw:ppc>
            <latexdraw:zoom>1.0</latexdraw:zoom>
            <latexdraw:unit>cm</latexdraw:unit>
            <latexdraw:classicGrid>false</latexdraw:classicGrid>
            <latexdraw:gridGap>10</latexdraw:gridGap>
            <latexdraw:code>0</latexdraw:code>
            <latexdraw:displayGrid>true</latexdraw:displayGrid>
            <latexdraw:magneticGrid>false</latexdraw:magneticGrid>
            <latexdraw:autoUpdate>true</latexdraw:autoUpdate>
            <latexdraw:version>2.0.8</latexdraw:version>
            <latexdraw:size>
                <latexdraw:width>1433</latexdraw:width>
                <latexdraw:height>877</latexdraw:height>
            </latexdraw:size>
            <latexdraw:position>
                <latexdraw:x>83</latexdraw:x>
                <latexdraw:y>109</latexdraw:y>
            </latexdraw:position>
            <latexdraw:dividerPosition>0.6294487090020935</latexdraw:dividerPosition>
            <latexdraw:displayCodePanel>true</latexdraw:displayCodePanel>
            <latexdraw:displayXScale>true</latexdraw:displayXScale>
            <latexdraw:displayYScale>true</latexdraw:displayYScale>
            <latexdraw:delimitorOpacity>130</latexdraw:delimitorOpacity>
        </latexdraw:metadata>
    </metadata>
</svg>
