<?xml version="1.0" encoding="UTF-8" standalone="no"?>
<!-- Created with Inkscape (http://www.inkscape.org/) -->

<svg
   xmlns:dc="http://purl.org/dc/elements/1.1/"
   xmlns:cc="http://creativecommons.org/ns#"
   xmlns:rdf="http://www.w3.org/1999/02/22-rdf-syntax-ns#"
   xmlns:svg="http://www.w3.org/2000/svg"
   xmlns="http://www.w3.org/2000/svg"
   xmlns:sodipodi="http://sodipodi.sourceforge.net/DTD/sodipodi-0.dtd"
   xmlns:inkscape="http://www.inkscape.org/namespaces/inkscape"
   width="744.09448819"
   height="1052.3622047"
   id="svg2"
   version="1.1"
   inkscape:version="0.48.3.1 r9886"
   sodipodi:docname="iterative-tiling.svg">
  <defs
     id="defs4" />
  <sodipodi:namedview
     id="base"
     pagecolor="#ffffff"
     bordercolor="#666666"
     borderopacity="1.0"
     inkscape:pageopacity="0.0"
     inkscape:pageshadow="2"
     inkscape:zoom="0.98994949"
     inkscape:cx="216.0325"
     inkscape:cy="744.58793"
     inkscape:document-units="px"
     inkscape:current-layer="layer1"
     showgrid="false"
     inkscape:window-width="1252"
     inkscape:window-height="690"
     inkscape:window-x="132"
     inkscape:window-y="113"
     inkscape:window-maximized="0" />
  <metadata
     id="metadata7">
    <rdf:RDF>
      <cc:Work
         rdf:about="">
        <dc:format>image/svg+xml</dc:format>
        <dc:type
           rdf:resource="http://purl.org/dc/dcmitype/StillImage" />
        <dc:title></dc:title>
      </cc:Work>
    </rdf:RDF>
  </metadata>
  <g
     inkscape:label="Layer 1"
     inkscape:groupmode="layer"
     id="layer1">
    <rect
       style="fill:none;stroke:#000000;stroke-width:1.8431257;stroke-linecap:round;stroke-linejoin:miter;stroke-miterlimit:4;stroke-opacity:1;stroke-dasharray:none;stroke-dashoffset:0"
       id="rect3870"
       width="110.71803"
       height="113.10279"
       x="118.69095"
       y="393.27692" />
    <rect
       style="fill:none;stroke:#000000;stroke-width:1.28238547;stroke-linecap:round;stroke-linejoin:miter;stroke-miterlimit:4;stroke-opacity:1;stroke-dasharray:none;stroke-dashoffset:0"
       id="rect3872"
       width="20.151772"
       height="20.151772"
       x="119.46127"
       y="392.99655" />
    <rect
       y="392.99655"
       x="140.47514"
       height="20.151772"
       width="20.151772"
       id="rect3878"
       style="fill:none;stroke:#000000;stroke-width:1.28238547;stroke-linecap:round;stroke-linejoin:miter;stroke-miterlimit:4;stroke-opacity:1;stroke-dasharray:none;stroke-dashoffset:0" />
    <rect
       style="fill:none;stroke:#000000;stroke-width:1.77608407;stroke-linecap:round;stroke-linejoin:miter;stroke-miterlimit:4;stroke-opacity:1;stroke-dasharray:none;stroke-dashoffset:0"
       id="rect3880"
       width="38.654766"
       height="20.151772"
       x="160.43832"
       y="392.99655" />
    <rect
       y="392.99655"
       x="199.31401"
       height="20.151772"
       width="29.035866"
       id="rect3882"
       style="fill:none;stroke:#000000;stroke-width:1.53932178;stroke-linecap:round;stroke-linejoin:miter;stroke-miterlimit:4;stroke-opacity:1;stroke-dasharray:none;stroke-dashoffset:0" />
    <rect
       y="412.99655"
       x="119.46127"
       height="20.151772"
       width="20.151772"
       id="rect3884"
       style="fill:none;stroke:#000000;stroke-width:1.28238547;stroke-linecap:round;stroke-linejoin:miter;stroke-miterlimit:4;stroke-opacity:1;stroke-dasharray:2.56477094, 5.12954187;stroke-dashoffset:0" />
    <rect
       style="fill:none;stroke:#000000;stroke-width:1.28238547;stroke-linecap:round;stroke-linejoin:miter;stroke-miterlimit:4;stroke-opacity:1;stroke-dasharray:2.56477094, 5.12954187;stroke-dashoffset:0"
       id="rect3886"
       width="20.151772"
       height="20.151772"
       x="140.47514"
       y="412.99655" />
    <rect
       y="412.99655"
       x="160.43832"
       height="20.151772"
       width="38.654766"
       id="rect3888"
       style="fill:none;stroke:#000000;stroke-width:1.77608407;stroke-linecap:round;stroke-linejoin:miter;stroke-miterlimit:4;stroke-opacity:1;stroke-dasharray:3.55216813, 7.10433626;stroke-dashoffset:0" />
    <rect
       style="fill:none;stroke:#000000;stroke-width:1.53932178;stroke-linecap:round;stroke-linejoin:miter;stroke-miterlimit:4;stroke-opacity:1;stroke-dasharray:3.07864356, 6.15728712;stroke-dashoffset:0"
       id="rect3890"
       width="29.035866"
       height="20.151772"
       x="199.31401"
       y="412.99655" />
    <rect
       style="fill:none;stroke:#000000;stroke-width:4;stroke-linecap:round;stroke-linejoin:miter;stroke-miterlimit:4;stroke-opacity:1;stroke-dasharray:none;stroke-dashoffset:0"
       id="rect2985"
       width="220"
       height="220"
       x="21.428574"
       y="85.21933" />
    <rect
       style="fill:#ffff00;stroke:#000000;stroke-width:3;stroke-linecap:round;stroke-linejoin:miter;stroke-miterlimit:4;stroke-opacity:1;stroke-dasharray:none;stroke-dashoffset:0"
       id="rect2987"
       width="87.378845"
       height="87.378845"
       x="87.024864"
       y="149.38704" />
    <rect
       style="fill:#ffff00;stroke:#000000;stroke-width:3;stroke-linecap:round;stroke-linejoin:miter;stroke-miterlimit:4;stroke-opacity:1;stroke-dasharray:none;stroke-dashoffset:0"
       id="rect2991"
       width="64.285713"
       height="64.285713"
       x="22.857143"
       y="85.219322" />
    <rect
       style="fill:#ffff00;stroke:#000000;stroke-width:3;stroke-linecap:round;stroke-linejoin:miter;stroke-miterlimit:4;stroke-opacity:1;stroke-dasharray:none;stroke-dashoffset:0"
       id="rect2993"
       width="28.571428"
       height="28.571428"
       x="174.28571"
       y="238.07646" />
    <rect
       style="fill:#ffff00;stroke:#000000;stroke-width:3;stroke-linecap:round;stroke-linejoin:miter;stroke-miterlimit:4;stroke-opacity:1;stroke-dasharray:none;stroke-dashoffset:0"
       id="rect2995"
       width="35.714287"
       height="35.714287"
       x="205.71429"
       y="268.07648" />
    <rect
       y="86.647903"
       x="352.85715"
       height="220"
       width="220"
       id="rect3001"
       style="fill:none;stroke:#000000;stroke-width:4;stroke-linecap:round;stroke-linejoin:miter;stroke-miterlimit:4;stroke-opacity:1;stroke-dasharray:none;stroke-dashoffset:0" />
    <path
       style="fill:#ffff00;stroke:#000000;stroke-width:1;stroke-linecap:round;stroke-linejoin:miter;stroke-miterlimit:4;stroke-opacity:1;stroke-dasharray:none;stroke-dashoffset:0"
       d="M 371.875 106.125 L 371.875 127.1875 L 392.9375 127.1875 L 392.9375 106.125 L 371.875 106.125 z M 409 106.125 L 409 127.1875 L 430.0625 127.1875 L 430.0625 106.125 L 409 106.125 z M 458.34375 106.125 L 458.34375 127.1875 L 503.59375 127.1875 L 503.59375 106.125 L 458.34375 106.125 z M 520.625 106.125 L 520.625 127.1875 L 552.75 127.1875 L 552.75 106.125 L 520.625 106.125 z M 371.875 147.53125 L 371.875 168.59375 L 392.9375 168.59375 L 392.9375 147.53125 L 371.875 147.53125 z M 409 147.53125 L 409 168.59375 L 430.0625 168.59375 L 430.0625 147.53125 L 409 147.53125 z M 458.34375 147.53125 L 458.34375 168.59375 L 503.59375 168.59375 L 503.59375 147.53125 L 458.34375 147.53125 z M 520.625 147.53125 L 520.625 168.59375 L 552.75 168.59375 L 552.75 147.53125 L 520.625 147.53125 z M 371.875 187.53125 L 371.875 232.78125 L 392.9375 232.78125 L 392.9375 187.53125 L 371.875 187.53125 z M 409 187.53125 L 409 232.78125 L 430.0625 232.78125 L 430.0625 187.53125 L 409 187.53125 z M 458.34375 187.53125 L 458.34375 232.78125 L 503.59375 232.78125 L 503.59375 187.53125 L 458.34375 187.53125 z M 520.625 187.53125 L 520.625 232.78125 L 552.75 232.78125 L 552.75 187.53125 L 520.625 187.53125 z M 371.875 263.96875 L 371.875 289.9375 L 392.9375 289.9375 L 392.9375 263.96875 L 371.875 263.96875 z M 409 263.96875 L 409 289.9375 L 430.0625 289.9375 L 430.0625 263.96875 L 409 263.96875 z M 458.34375 263.96875 L 458.34375 289.9375 L 503.59375 289.9375 L 503.59375 263.96875 L 458.34375 263.96875 z M 520.625 263.96875 L 520.625 289.9375 L 552.75 289.9375 L 552.75 263.96875 L 520.625 263.96875 z "
       id="rect3003" />
    <rect
       style="fill:none;stroke:#000000;stroke-width:3;stroke-linecap:round;stroke-linejoin:miter;stroke-miterlimit:4;stroke-opacity:1;stroke-dasharray:none;stroke-dashoffset:0"
       id="rect3025"
       width="221.98976"
       height="21.060745"
       x="351.39771"
       y="104.68896" />
    <rect
       y="146.11752"
       x="351.39771"
       height="21.060745"
       width="221.98976"
       id="rect3027"
       style="fill:none;stroke:#000000;stroke-width:3;stroke-linecap:round;stroke-linejoin:miter;stroke-miterlimit:4;stroke-opacity:1;stroke-dasharray:none;stroke-dashoffset:0" />
    <rect
       style="fill:none;stroke:#000000;stroke-width:3;stroke-linecap:round;stroke-linejoin:miter;stroke-miterlimit:4;stroke-opacity:1;stroke-dasharray:none;stroke-dashoffset:0"
       id="rect3029"
       width="221.98976"
       height="45.235229"
       x="351.39771"
       y="186.11752" />
    <rect
       y="262.53061"
       x="351.39771"
       height="25.965004"
       width="221.98976"
       id="rect3031"
       style="fill:none;stroke:#000000;stroke-width:3;stroke-linecap:round;stroke-linejoin:miter;stroke-miterlimit:4;stroke-opacity:1;stroke-dasharray:none;stroke-dashoffset:0" />
    <rect
       transform="matrix(0,-1,1,0,0,0)"
       y="456.91785"
       x="-305.44431"
       height="45.235229"
       width="221.98976"
       id="rect3033"
       style="fill:none;stroke:#000000;stroke-width:3;stroke-linecap:round;stroke-linejoin:miter;stroke-miterlimit:4;stroke-opacity:1;stroke-dasharray:none;stroke-dashoffset:0" />
    <rect
       style="fill:none;stroke:#000000;stroke-width:3;stroke-linecap:round;stroke-linejoin:miter;stroke-miterlimit:4;stroke-opacity:1;stroke-dasharray:none;stroke-dashoffset:0"
       id="rect3035"
       width="221.98976"
       height="32.132851"
       x="-305.44431"
       y="519.18329"
       transform="matrix(0,-1,1,0,0,0)" />
    <rect
       transform="matrix(0,-1,1,0,0,0)"
       y="370.43362"
       x="-306.2142"
       height="21.060745"
       width="221.98976"
       id="rect3037"
       style="fill:none;stroke:#000000;stroke-width:3;stroke-linecap:round;stroke-linejoin:miter;stroke-miterlimit:4;stroke-opacity:1;stroke-dasharray:none;stroke-dashoffset:0" />
    <rect
       style="fill:none;stroke:#000000;stroke-width:3;stroke-linecap:round;stroke-linejoin:miter;stroke-miterlimit:4;stroke-opacity:1;stroke-dasharray:none;stroke-dashoffset:0"
       id="rect3039"
       width="221.98976"
       height="21.060745"
       x="-306.2142"
       y="407.57648"
       transform="matrix(0,-1,1,0,0,0)" />
    <path
       sodipodi:type="arc"
       style="fill:none;fill-opacity:1;fill-rule:nonzero;stroke:#ff0000;stroke-width:5;stroke-linecap:round;stroke-linejoin:miter;stroke-miterlimit:4;stroke-opacity:1;stroke-dasharray:none;stroke-dashoffset:0"
       id="path3830"
       sodipodi:cx="131.42857"
       sodipodi:cy="192.36218"
       sodipodi:rx="67.14286"
       sodipodi:ry="67.14286"
       d="m 198.57143,192.36218 a 67.14286,67.14286 0 1 1 -134.285717,0 67.14286,67.14286 0 1 1 134.285717,0 z" />
    <path
       style="fill:none;stroke:#000080;stroke-width:2;stroke-linecap:round;stroke-linejoin:miter;stroke-miterlimit:4;stroke-opacity:1;stroke-dasharray:none"
       d="M 382.85714,116.6479 133.40172,403.27081"
       id="path3860"
       inkscape:connector-curvature="0"
       sodipodi:nodetypes="cc" />
    <path
       style="fill:none;stroke:#000080;stroke-width:2;stroke-linecap:round;stroke-linejoin:miter;stroke-miterlimit:4;stroke-opacity:1;stroke-dasharray:none"
       d="M 424.28571,118.07647 153.64682,402.85239"
       id="path3862"
       inkscape:connector-curvature="0"
       sodipodi:nodetypes="cc" />
    <path
       style="fill:none;stroke:#000080;stroke-width:2;stroke-linecap:round;stroke-linejoin:miter;stroke-miterlimit:4;stroke-opacity:1;stroke-dasharray:none"
       d="M 478.57143,118.07647 183.22841,401.42382"
       id="path3864"
       inkscape:connector-curvature="0"
       sodipodi:nodetypes="cc" />
    <path
       style="fill:none;stroke:#000080;stroke-width:2;stroke-linecap:round;stroke-linejoin:miter;stroke-miterlimit:4;stroke-opacity:1;stroke-dasharray:none"
       d="M 538.57143,122.36218 217.02392,403.44412"
       id="path3866"
       inkscape:connector-curvature="0"
       sodipodi:nodetypes="cc" />
    <path
       style="fill:none;stroke:#000080;stroke-width:2;stroke-linecap:round;stroke-linejoin:miter;stroke-miterlimit:4;stroke-opacity:1;stroke-dasharray:none"
       d="M 537.8289,158.66821 217.48949,423.0257"
       id="path3868"
       inkscape:connector-curvature="0"
       sodipodi:nodetypes="cc" />
    <rect
       y="393.27692"
       x="370.11951"
       height="113.10279"
       width="110.71803"
       id="rect3898"
       style="fill:none;stroke:#000000;stroke-width:1.8431257;stroke-linecap:round;stroke-linejoin:miter;stroke-miterlimit:4;stroke-opacity:1;stroke-dasharray:none;stroke-dashoffset:0" />
    <rect
       y="393.25339"
       x="370.00723"
       height="26.095697"
       width="26.095697"
       id="rect3902"
       style="fill:#ffff00;stroke:#000000;stroke-width:2;stroke-linecap:round;stroke-linejoin:miter;stroke-miterlimit:4;stroke-opacity:1;stroke-dasharray:none;stroke-dashoffset:0" />
    <rect
       style="fill:#ffff00;stroke:#000000;stroke-width:1.95970368;stroke-linecap:round;stroke-linejoin:miter;stroke-miterlimit:4;stroke-opacity:1;stroke-dasharray:none;stroke-dashoffset:0"
       id="rect3904"
       width="67.515121"
       height="67.515121"
       x="396.44037"
       y="420.40085" />
    <rect
       style="fill:#ffff00;stroke:#000000;stroke-width:2;stroke-linecap:round;stroke-linejoin:miter;stroke-miterlimit:4;stroke-opacity:1;stroke-dasharray:none;stroke-dashoffset:0"
       id="rect3906"
       width="17.810335"
       height="17.810335"
       x="463.43561"
       y="488.11035" />
    <path
       style="fill:none;stroke:#ff0000;stroke-width:2;stroke-linecap:round;stroke-linejoin:miter;stroke-opacity:1;stroke-miterlimit:4;stroke-dasharray:none"
       d="M 198.57143,181.6479 345,205.21933"
       id="path3029"
       inkscape:connector-curvature="0"
       sodipodi:nodetypes="cc" />
    <path
       style="fill:none;stroke:#ff0000;stroke-width:2;stroke-linecap:round;stroke-linejoin:miter;stroke-opacity:1;stroke-miterlimit:4;stroke-dasharray:none"
       d="M 345,158.07647 198.57143,177.36218 347.14285,118.07646"
       id="path3031"
       inkscape:connector-curvature="0"
       sodipodi:nodetypes="ccc" />
    <path
       style="fill:none;stroke:#ff0000;stroke-width:2;stroke-linecap:round;stroke-linejoin:miter;stroke-opacity:1;stroke-miterlimit:4;stroke-dasharray:none"
       d="m 152.14286,122.36219 c 0,0 227.85714,-131.4285794 229.99999,-45.000008"
       id="path3035"
       inkscape:connector-curvature="0"
       sodipodi:nodetypes="cc" />
    <path
       inkscape:connector-curvature="0"
       id="path3037"
       d="m 144.28571,120.21932 c 5,-40.714285 275.2152,-129.9999951 276.70355,-44.999995"
       style="fill:none;stroke:#ff0000;stroke-width:2;stroke-linecap:round;stroke-linejoin:miter;stroke-opacity:1;stroke-miterlimit:4;stroke-dasharray:none"
       sodipodi:nodetypes="cc" />
    <g
       id="g3815"
       transform="matrix(0.66081042,-0.13050061,0.13050061,0.66081042,419.94502,-100.59007)"
       style="stroke-width:2.96923938999999981;stroke-miterlimit:4;stroke-dasharray:none;stroke:#ff0000">
      <path
         inkscape:connector-curvature="0"
         id="path3039"
         d="m -116.42857,231.6479 10,16.42857"
         style="fill:none;stroke:#ff0000;stroke-width:2.96923938999999981;stroke-linecap:round;stroke-linejoin:round;stroke-opacity:1;stroke-miterlimit:4;stroke-dasharray:none" />
      <path
         style="fill:none;stroke:#ff0000;stroke-width:2.96923938999999981;stroke-linecap:round;stroke-linejoin:round;stroke-opacity:1;stroke-miterlimit:4;stroke-dasharray:none"
         d="m -95.78127,231.22733 -10.2946,16.91257"
         id="path3041"
         inkscape:connector-curvature="0" />
    </g>
    <path
       inkscape:connector-curvature="0"
       id="path3821"
       d="m 413.37583,65.111735 7.41075,10.625616"
       style="fill:none;stroke:#ff0000;stroke-width:2;stroke-linecap:round;stroke-linejoin:round;stroke-opacity:1;stroke-miterlimit:4;stroke-dasharray:none" />
    <path
       style="fill:none;stroke:#ff0000;stroke-width:2;stroke-linecap:round;stroke-linejoin:round;stroke-opacity:1;stroke-miterlimit:4;stroke-dasharray:none"
       d="m 427.23877,63.964256 -6.21242,11.800966"
       id="path3823"
       inkscape:connector-curvature="0" />
    <g
       transform="matrix(-0.25736385,-0.6224666,0.6224666,-0.25736385,165.7733,115.51233)"
       id="g3825"
       style="stroke-width:2.96923938999999981;stroke-miterlimit:4;stroke-dasharray:none;stroke:#ff0000">
      <path
         style="fill:none;stroke:#ff0000;stroke-width:2.96923938999999981;stroke-linecap:round;stroke-linejoin:round;stroke-opacity:1;stroke-miterlimit:4;stroke-dasharray:none"
         d="m -116.42857,231.6479 10,16.42857"
         id="path3827"
         inkscape:connector-curvature="0" />
      <path
         inkscape:connector-curvature="0"
         id="path3829"
         d="m -95.78127,231.22733 -10.2946,16.91257"
         style="fill:none;stroke:#ff0000;stroke-width:2.96923938999999981;stroke-linecap:round;stroke-linejoin:round;stroke-opacity:1;stroke-miterlimit:4;stroke-dasharray:none" />
    </g>
    <g
       id="g3831"
       transform="matrix(-0.12296652,-0.66225377,0.66225377,-0.12296652,167.87126,118.14514)"
       style="stroke-width:2.96923938999999981;stroke-miterlimit:4;stroke-dasharray:none;stroke:#ff0000">
      <path
         inkscape:connector-curvature="0"
         id="path3833"
         d="m -116.42857,231.6479 10,16.42857"
         style="fill:none;stroke:#ff0000;stroke-width:2.96923938999999981;stroke-linecap:round;stroke-linejoin:round;stroke-opacity:1;stroke-miterlimit:4;stroke-dasharray:none" />
      <path
         style="fill:none;stroke:#ff0000;stroke-width:2.96923938999999981;stroke-linecap:round;stroke-linejoin:round;stroke-opacity:1;stroke-miterlimit:4;stroke-dasharray:none"
         d="m -95.78127,231.22733 -10.2946,16.91257"
         id="path3835"
         inkscape:connector-curvature="0" />
    </g>
    <g
       transform="matrix(0.05759524,-0.67110626,0.67110626,0.05759524,185.06411,119.6695)"
       id="g3837"
       style="stroke-width:2.96923937999999987;stroke-miterlimit:4;stroke-dasharray:none;stroke:#ff0000">
      <path
         style="fill:none;stroke:#ff0000;stroke-width:2.96923937999999987;stroke-linecap:round;stroke-linejoin:round;stroke-opacity:1;stroke-miterlimit:4;stroke-dasharray:none"
         d="m -116.42857,231.6479 10,16.42857"
         id="path3839"
         inkscape:connector-curvature="0" />
      <path
         inkscape:connector-curvature="0"
         id="path3841"
         d="m -95.78127,231.22733 -10.2946,16.91257"
         style="fill:none;stroke:#ff0000;stroke-width:2.96923937999999987;stroke-linecap:round;stroke-linejoin:round;stroke-opacity:1;stroke-miterlimit:4;stroke-dasharray:none" />
    </g>
    <g
       id="g3859"
       transform="translate(7.5033663,0)">
      <text
         sodipodi:linespacing="125%"
         id="text2997"
         y="49.790512"
         x="126.42857"
         style="font-size:19.42978859px;font-style:normal;font-variant:normal;font-weight:normal;font-stretch:normal;line-height:125%;letter-spacing:0px;word-spacing:0px;fill:#000000;fill-opacity:1;stroke:none;font-family:Times New Roman;-inkscape-font-specification:Times New Roman"
         xml:space="preserve"><tspan
           y="49.790512"
           x="126.42857"
           id="tspan2999"
           sodipodi:role="line"><tspan
             id="tspan3857"
             style="font-style:normal;-inkscape-font-specification:'Times New Roman,'">A</tspan><tspan
             id="tspan3845"
             style="font-size:12.62954044px;baseline-shift:sub;font-family:Times New Roman;-inkscape-font-specification:Times New Roman">1</tspan></tspan></text>
      <text
         sodipodi:linespacing="125%"
         id="text3853"
         y="62.362183"
         x="102.14286"
         style="font-size:28px;font-style:normal;font-variant:normal;font-weight:normal;font-stretch:normal;line-height:125%;letter-spacing:0px;word-spacing:0px;fill:#000000;fill-opacity:1;stroke:none;font-family:Times New Roman;-inkscape-font-specification:'Times New Roman,'"
         xml:space="preserve"><tspan
           style="font-style:normal;-inkscape-font-specification:'Times New Roman,'"
           y="62.362183"
           x="102.14286"
           id="tspan3855"
           sodipodi:role="line">M</tspan></text>
    </g>
    <g
       id="g3887"
       transform="translate(-9.4339542,10)">
      <text
         xml:space="preserve"
         style="font-size:19.42978859px;font-style:normal;font-variant:normal;font-weight:normal;font-stretch:normal;line-height:125%;letter-spacing:0px;word-spacing:0px;fill:#000000;fill-opacity:1;stroke:none;font-family:Times New Roman;-inkscape-font-specification:Times New Roman"
         x="474.28571"
         y="39.790512"
         id="text3869"
         sodipodi:linespacing="125%"><tspan
           sodipodi:role="line"
           id="tspan3871"
           x="474.28571"
           y="39.790512"><tspan
             style="font-style:normal;-inkscape-font-specification:'Times New Roman,'"
             id="tspan3873">A</tspan><tspan
             style="font-size:12.62954044px;baseline-shift:sub;font-family:Times New Roman;-inkscape-font-specification:Times New Roman"
             id="tspan3875">2</tspan></tspan></text>
      <text
         xml:space="preserve"
         style="font-size:28px;font-style:normal;font-variant:normal;font-weight:normal;font-stretch:normal;line-height:125%;letter-spacing:0px;word-spacing:0px;fill:#000000;fill-opacity:1;stroke:none;font-family:Times New Roman;-inkscape-font-specification:'Times New Roman,'"
         x="450"
         y="52.362183"
         id="text3877"
         sodipodi:linespacing="125%"><tspan
           sodipodi:role="line"
           id="tspan3879"
           x="450"
           y="52.362183"
           style="font-style:normal;-inkscape-font-specification:'Times New Roman,'">M</tspan></text>
    </g>
    <g
       id="g3909"
       transform="translate(-79.802051,-11.775201)">
      <text
         sodipodi:linespacing="125%"
         id="text3892"
         y="558.07648"
         x="277.14285"
         style="font-size:28px;font-style:normal;font-variant:normal;font-weight:normal;font-stretch:normal;line-height:125%;letter-spacing:0px;word-spacing:0px;fill:#000000;fill-opacity:1;stroke:none;font-family:Times New Roman;-inkscape-font-specification:Times New Roman"
         xml:space="preserve"><tspan
           y="558.07648"
           x="277.14285"
           id="tspan3894"
           sodipodi:role="line">Conditional</tspan></text>
      <g
         id="g3895"
         transform="translate(-35,506.13812)">
        <text
           xml:space="preserve"
           style="font-size:19.42978859px;font-style:normal;font-variant:normal;font-weight:normal;font-stretch:normal;line-height:125%;letter-spacing:0px;word-spacing:0px;fill:#000000;fill-opacity:1;stroke:none;font-family:Times New Roman;-inkscape-font-specification:Times New Roman"
           x="474.28571"
           y="39.790512"
           id="text3897"
           sodipodi:linespacing="125%"><tspan
             sodipodi:role="line"
             id="tspan3899"
             x="474.28571"
             y="39.790512"><tspan
               style="font-style:normal;-inkscape-font-specification:'Times New Roman,'"
               id="tspan3901">A</tspan><tspan
               style="font-size:12.62954044px;baseline-shift:sub;font-family:Times New Roman;-inkscape-font-specification:Times New Roman"
               id="tspan3903">2</tspan></tspan></text>
        <text
           xml:space="preserve"
           style="font-size:28px;font-style:normal;font-variant:normal;font-weight:normal;font-stretch:normal;line-height:125%;letter-spacing:0px;word-spacing:0px;fill:#000000;fill-opacity:1;stroke:none;font-family:Times New Roman;-inkscape-font-specification:'Times New Roman,'"
           x="450"
           y="52.362183"
           id="text3905"
           sodipodi:linespacing="125%"><tspan
             sodipodi:role="line"
             id="tspan3907"
             x="450"
             y="52.362183"
             style="font-style:normal;-inkscape-font-specification:'Times New Roman,'">M</tspan></text>
      </g>
    </g>
    <g
       id="g3948"
       transform="translate(-75.802051,-20.527094)">
      <g
         transform="matrix(0.02857067,-0.67296697,0.67296697,0.02857067,274.05276,392.33797)"
         id="g3922"
         style="stroke:#008000;stroke-width:2.96923947;stroke-miterlimit:4;stroke-dasharray:none">
        <path
           style="fill:none;stroke:#008000;stroke-width:2.96923947;stroke-linecap:round;stroke-linejoin:round;stroke-miterlimit:4;stroke-opacity:1;stroke-dasharray:none"
           d="m -116.42857,231.6479 10,16.42857"
           id="path3924"
           inkscape:connector-curvature="0" />
        <path
           inkscape:connector-curvature="0"
           id="path3926"
           d="m -95.78127,231.22733 -10.2946,16.91257"
           style="fill:none;stroke:#008000;stroke-width:2.96923947;stroke-linecap:round;stroke-linejoin:round;stroke-miterlimit:4;stroke-opacity:1;stroke-dasharray:none" />
      </g>
      <path
         sodipodi:nodetypes="cc"
         inkscape:connector-curvature="0"
         id="path3930"
         d="m 314.53607,470.72568 121.79007,0"
         style="fill:none;stroke:#008000;stroke-width:2;stroke-linecap:round;stroke-linejoin:miter;stroke-miterlimit:4;stroke-opacity:1;stroke-dasharray:none" />
    </g>
    <text
       xml:space="preserve"
       style="font-size:17.99616814px;font-style:normal;font-variant:normal;font-weight:normal;font-stretch:normal;text-align:center;line-height:125%;letter-spacing:0px;word-spacing:0px;text-anchor:middle;fill:#000000;fill-opacity:1;stroke:none;font-family:Times New Roman;-inkscape-font-specification:Times New Roman"
       x="294.71619"
       y="444.70538"
       id="text3938"
       sodipodi:linespacing="125%"><tspan
         sodipodi:role="line"
         id="tspan3940"
         x="294.71619"
         y="444.70538">Find Minimal</tspan><tspan
         sodipodi:role="line"
         x="294.71619"
         y="467.20059"
         id="tspan3942">Tiles</tspan></text>
  </g>
</svg>
